…
The model fit object also contains the estimates, which can be used for
custom plotting or tables. Some examples:

``` r

results_national$estimates |>
  dplyr::filter(marital_status == "all")
```

    ## # A tibble: 12,672 × 10
    ##    iso    year indicator         marital_status percentile division_numeric_code
    ##    <chr> <dbl> <chr>             <chr>          <chr>                      <dbl>
    ##  1 TGO    1970 contraceptive_us… all            mean                         768
    ##  2 TGO    1970 contraceptive_us… all            mean                         768
    ##  3 TGO    1970 contraceptive_us… all            2.5%                         768
    ##  4 TGO    1970 contraceptive_us… all            2.5%                         768
    ##  5 TGO    1970 contraceptive_us… all            5%                           768
    ##  6 TGO    1970 contraceptive_us… all            5%                           768
    ##  7 TGO    1970 contraceptive_us… all            10%                          768
    ##  8 TGO    1970 contraceptive_us… all            10%                          768
    ##  9 TGO    1970 contraceptive_us… all            50%                          768
    ## 10 TGO    1970 contraceptive_us… all            50%                          768
    ## # ℹ 12,662 more rows
    ## # ℹ 4 more variables: age_range <chr>, region_code <lgl>, measure <chr>,
    ## #   value <dbl>

``` r

results_national$estimates |>
  dplyr::filter(measure == "population_count")
```

    ## # A tibble: 19,008 × 10
    ##    iso    year indicator         marital_status percentile division_numeric_code
    ##    <chr> <dbl> <chr>             <chr>          <chr>                      <dbl>
    ##  1 TGO    1970 contraceptive_us… married        mean                         768
    ##  2 TGO    1970 contraceptive_us… married        2.5%                         768
    ##  3 TGO    1970 contraceptive_us… married        5%                           768
    ##  4 TGO    1970 contraceptive_us… married        10%                          768
    ##  5 TGO    1970 contraceptive_us… married        50%                          768
    ##  6 TGO    1970 contraceptive_us… married        90%                          768
    ##  7 TGO    1970 contraceptive_us… married        95%                          768
    ##  8 TGO    1970 contraceptive_us… married        97.5%                        768
    ##  9 TGO    1970 contraceptive_us… married        mean                         768
    ## 10 TGO    1970 contraceptive_us… married        2.5%                         768
    ## # ℹ 18,998 more rows
    ## # ℹ 4 more variables: age_range <chr>, region_code <lgl>, measure <chr>,
    ## #   value <dbl>
