FPET: Local fitting for national estimation for all women • fpet2
…
The model fit object also contains the estimates, which can be used
for custom plotting or tables. Some examples:

results_national$estimates |>
  dplyr::filter(marital_status == "all")

## # A tibble: 11,712 × 9
##    iso    year indicator         marital_status percentile division_numeric_code
##    <chr> <dbl> <chr>             <chr>          <chr>                      <dbl>
##  1 TGO    1970 contraceptive_us… all            mean                         768
##  2 TGO    1970 contraceptive_us… all            mean                         768
##  3 TGO    1970 contraceptive_us… all            2.5%                         768
##  4 TGO    1970 contraceptive_us… all            2.5%                         768
##  5 TGO    1970 contraceptive_us… all            5%                           768
##  6 TGO    1970 contraceptive_us… all            5%                           768
##  7 TGO    1970 contraceptive_us… all            10%                          768
##  8 TGO    1970 contraceptive_us… all            10%                          768
##  9 TGO    1970 contraceptive_us… all            50%                          768
## 10 TGO    1970 contraceptive_us… all            50%                          768
## # ℹ 11,702 more rows
## # ℹ 3 more variables: region_code <lgl>, measure <chr>, value <dbl>

results_national$estimates |>
  dplyr::filter(measure == "population_count")

## # A tibble: 17,568 × 9
##    iso    year indicator         marital_status percentile division_numeric_code
##    <chr> <dbl> <chr>             <chr>          <chr>                      <dbl>
##  1 TGO    1970 contraceptive_us… married        mean                         768
##  2 TGO    1970 contraceptive_us… married        2.5%                         768
##  3 TGO    1970 contraceptive_us… married        5%                           768
##  4 TGO    1970 contraceptive_us… married        10%                          768
##  5 TGO    1970 contraceptive_us… married        50%                          768
##  6 TGO    1970 contraceptive_us… married        90%                          768
##  7 TGO    1970 contraceptive_us… married        95%                          768
##  8 TGO    1970 contraceptive_us… married        97.5%                        768
##  9 TGO    1970 contraceptive_us… married        mean                         768
## 10 TGO    1970 contraceptive_us… married        2.5%                         768
## # ℹ 17,558 more rows
## # ℹ 3 more variables: region_code <lgl>, measure <chr>, value <dbl>
…
